{
  "name": "",
  "css_prefix_text": "icon-",
  "css_use_suffix": false,
  "hinting": true,
  "units_per_em": 1000,
  "ascent": 850,
  "glyphs": [
    {
      "uid": "f5053e43ef8be31afb905801449ae26d",
      "css": "truck",
      "code": 59392,
      "src": "linecons"
    },
    {
      "uid": "9avusbdkm7q4vcmevr0x88zxewys65wr",
      "css": "clock-alt",
      "code": 59393,
      "src": "modernpics"
    },
    {
      "uid": "f3dc2d6d8fe9cf9ebff84dc260888cdf",
      "css": "heart-empty",
      "code": 59394,
      "src": "fontawesome"
    },
    {
      "uid": "b86df50a2d898bfcd371fa86c0b8b2fb",
      "css": "user-o",
      "code": 62144,
      "src": "fontawesome"
    },
    {
      "uid": "56a0672588820ab1a16363e5d07dd22e",
      "css": "user",
      "code": 59395,
      "src": "linecons"
    },
    {
      "uid": "8b80d36d4ef43889db10bc1f0dc9a862",
      "css": "user-1",
      "code": 59396,
      "src": "fontawesome"
    },
    {
      "uid": "004882ab2d5c418c5b2060e80596279b",
      "css": "right-open-big",
      "code": 59397,
      "src": "entypo"
    },
    {
      "uid": "884cfc3e6e2d456dd2a2ca0dbb9e6337",
      "css": "left-open-big",
      "code": 59398,
      "src": "entypo"
    },
    {
      "uid": "0db0310883e0bdacfd1bb2d394238e8a",
      "css": "left-circled",
      "code": 59399,
      "src": "entypo"
    },
    {
      "uid": "52725ff4d4042964bd3a60609bf3695b",
      "css": "right-circled",
      "code": 59400,
      "src": "entypo"
    },
    {
      "uid": "0817b47d6e5f1d85f2428640a021f0c4",
      "css": "star",
      "code": 59401,
      "src": "linecons"
    },
    {
      "uid": "689ef8cee6655c255ffdddf5e3188165",
      "css": "star-half_empty",
      "code": 61476,
      "src": "mfglabs"
    },
    {
      "uid": "3fba70399d61e886bce68721edbc71af",
      "css": "star-half",
      "code": 61474,
      "src": "mfglabs"
    },
    {
      "uid": "b392c847bf41826598f12c02be842253",
      "css": "star-1",
      "code": 59402,
      "src": "mfglabs"
    },
    {
      "uid": "7b6c617d6d1e3f22db493839f0483bf6",
      "css": "edit",
      "code": 59403,
      "src": "elusive"
    },
    {
      "uid": "6cc7af3e5b55720bcb6ef68372ce24be",
      "css": "facebook-official",
      "code": 62000,
      "src": "fontawesome"
    },
    {
      "uid": "8e04c98c8f5ca0a035776e3001ad2638",
      "css": "facebook",
      "code": 61594,
      "src": "fontawesome"
    },
    {
      "uid": "d090355c31f497b61d676416c1fd39fb",
      "css": "twitter",
      "code": 62217,
      "src": "entypo"
    },
    {
      "uid": "0419da6446cb4f31093e2022793571ca",
      "css": "twitter-circled",
      "code": 62218,
      "src": "entypo"
    },
    {
      "uid": "b8d0c7d76e87b94882329a88e8e43d3d",
      "css": "gplus",
      "code": 61653,
      "src": "fontawesome"
    },
    {
      "uid": "fef29532e2318a0c604f34947024b990",
      "css": "gplus-circled",
      "code": 61529,
      "src": "mfglabs"
    },
    {
      "uid": "c896fd4e287aebcf79803e0ece001ec1",
      "css": "gplus-1",
      "code": 61530,
      "src": "mfglabs"
    },
    {
      "uid": "0fbfb1cd7a847c88ea4c141d0e1bbdb5",
      "css": "instagram",
      "code": 62253,
      "src": "entypo"
    },
    {
      "uid": "4c1ef492f1d2c39a2250ae457cee2a6e",
      "css": "instagram-1",
      "code": 61805,
      "src": "fontawesome"
    },
    {
      "uid": "b08cfe8039de2ce815686aced2caef06",
      "css": "download",
      "code": 59404,
      "src": "entypo"
    },
    {
      "uid": "e3ed188ab8569b45cf41e74ce81aa86e",
      "css": "cc-visa",
      "code": 61936,
      "src": "fontawesome"
    },
    {
      "uid": "4b1bfce8593a2c1c7d60b9145ada2adf",
      "css": "cc-mastercard",
      "code": 61937,
      "src": "fontawesome"
    },
    {
      "uid": "10e444e650c211fbcb6ae5e73671d94b",
      "css": "opencart",
      "code": 62013,
      "src": "fontawesome"
    },
    {
      "uid": "3d8cc269fdad8a4cda55a20542a84e5c",
      "css": "credit-card",
      "code": 59405,
      "src": "fontawesome"
    },
    {
      "uid": "7f3d8ff1d5f6ee019f0c00ed7a86caec",
      "css": "truck-1",
      "code": 59406,
      "src": "fontawesome"
    },
    {
      "uid": "d531ea7e8c094b73df941ed0bac921f3",
      "css": "shopping-bag",
      "code": 62096,
      "src": "fontawesome"
    },
    {
      "uid": "531bc468eecbb8867d822f1c11f1e039",
      "css": "calendar",
      "code": 59407,
      "src": "fontawesome"
    },
    {
      "uid": "28f308aa0a07a67433f54c089c400d82",
      "css": "gift",
      "code": 59408,
      "src": "fontawesome"
    },
    {
      "uid": "a9862b9d5197886c1ad693ecd7120b31",
      "css": "youtube",
      "code": 61799,
      "src": "fontawesome"
    },
    {
      "uid": "e331ff486a299c6bdf0056426c8fac53",
      "css": "youtube-squared",
      "code": 61798,
      "src": "fontawesome"
    },
    {
      "uid": "a6267a0b7262e1deffcc83076bc0e197",
      "css": "trash",
      "code": 61571,
      "src": "mfglabs"
    },
    {
      "uid": "f09340446e327a78969ea1bfac29c1a6",
      "css": "linkedin",
      "code": 61532,
      "src": "mfglabs"
    },
    {
      "uid": "d0c177a8e1688175c3445cc6b25bcc90",
      "css": "linkedin-circled",
      "code": 61531,
      "src": "mfglabs"
    },
    {
      "uid": "3c2cfcbad5062929d63a249f3858e38b",
      "css": "github-circled-alt",
      "code": 61523,
      "src": "mfglabs"
    },
    {
      "uid": "9ea28ba01d59a4410fa3db9c02cce157",
      "css": "github",
      "code": 61525,
      "src": "mfglabs"
    },
    {
      "uid": "aab7e7622e6ee1ed8166fb73f20e8c9a",
      "css": "bicycle",
      "code": 59409,
      "src": "maki"
    },
    {
      "uid": "7eed700d710c276569f95be26326fa5b",
      "css": "heart-empty-1",
      "code": 59410,
      "src": "elusive"
    },
    {
      "uid": "7480a298ce334eef70193895e799c3fd",
      "css": "headphones",
      "code": 59411,
      "src": "elusive"
    },
    {
      "uid": "c72edf6fd8549ee6b7578254145715d5",
      "css": "wordpress",
      "code": 59412,
      "src": "elusive"
    },
    {
      "uid": "cba6018f5de17c76f70b7d2c06037e5a",
      "css": "mail",
      "code": 59413,
      "src": "websymbols"
    },
    {
      "uid": "21115bb09fa242341cb91ed34710aa13",
      "css": "attach",
      "code": 59414,
      "src": "websymbols"
    },
    {
      "uid": "b52aa05c9c55c41f1768cdaa940401a8",
      "css": "comment-alt",
      "code": 59415,
      "src": "websymbols"
    },
    {
      "uid": "a25ef3626c7bd7031709a8264f280bfe",
      "css": "skype",
      "code": 62219,
      "src": "websymbols"
    },
    {
      "uid": "5184430eda6a2b9c989990e4bca70746",
      "css": "lock-open",
      "code": 59416,
      "src": "websymbols"
    },
    {
      "uid": "e6ad31134a018fdeb64efe72d39edd65",
      "css": "tag",
      "code": 59417,
      "src": "websymbols"
    },
    {
      "uid": "7b16b22168e762c88333f465da862098",
      "css": "ok",
      "code": 59418,
      "src": "websymbols"
    },
    {
      "uid": "157f2382d2c608c41d984c693174c83b",
      "css": "ok-circle",
      "code": 59419,
      "src": "websymbols"
    },
    {
      "uid": "84d19120538dd143b9cf5433f2417f48",
      "css": "th-list",
      "code": 59420,
      "src": "websymbols"
    },
    {
      "uid": "8da3ac534210aae9c0f0e13804c1df97",
      "css": "cancel",
      "code": 59421,
      "src": "websymbols"
    },
    {
      "uid": "221947bea81f49a11b863c686a7bd235",
      "css": "search",
      "code": 59422,
      "src": "websymbols"
    },
    {
      "uid": "a66e72da83c98248ae3ef43808efc452",
      "css": "plus-circle",
      "code": 59423,
      "src": "websymbols"
    },
    {
      "uid": "994eaa764b3f30721f3839c64c390ce3",
      "css": "minus-circle",
      "code": 59424,
      "src": "websymbols"
    },
    {
      "uid": "2cc73cc335f054682c04fe63439c4dcb",
      "css": "trash-1",
      "code": 59425,
      "src": "linecons"
    },
    {
      "uid": "1ea8ad6dbe1ae9a73565ad16cf88de19",
      "css": "location",
      "code": 59426,
      "src": "linecons"
    },
    {
      "uid": "9725db89b610135dc76cd8a21afffa83",
      "css": "search-1",
      "code": 59427,
      "src": "linecons"
    },
    {
      "uid": "b19ac67070bc44e310990016288e449c",
      "css": "heart",
      "code": 59428,
      "src": "linecons"
    },
    {
      "uid": "e7dfdf6b53042b0bc844d920c9192c10",
      "css": "vektor-smartobjekt",
      "code": 59429,
      "src": "custom_icons",
      "selected": true,
      "svg": {
        "path": "M500.3 461.6C524.5 447.5 550.6 436.6 578.2 429 531 419.7 488 402.9 458.3 379.1V406.3C458.3 427 474.4 446 500.3 461.6M833 461.6C858.9 446 875 427 875 406.3V379.1C845.3 402.9 802.3 419.7 755.2 429 782.7 436.6 808.8 447.5 833 461.6M666.7 395.8C778 395.8 875 353.9 875 302.1V275C827.2 313.2 745.5 333.3 666.7 333.3 587.9 333.3 506.1 313.2 458.3 275V302.1C458.3 353.9 555.3 395.8 666.7 395.8M666.7 187.5C778 187.5 875 145.5 875 93.8S778 0 666.7 0C555.3 0 458.3 42 458.3 93.8S555.3 187.5 666.7 187.5M666.7 291.7C778 291.7 875 249.7 875 197.9V170.7C827.2 209 745.5 229.2 666.7 229.2 587.9 229.2 506.1 209 458.3 170.7V197.9C458.3 249.7 555.3 291.7 666.7 291.7M208.3 854.2C259.2 854.2 306.6 845.1 343.6 830.6 339 812.2 335.9 793.1 334.5 773.6 295.6 785.4 251.6 791.7 208.3 791.7 129.5 791.7 47.7 771.5 0 733.3V760.4C0 812.2 97 854.2 208.3 854.2M208.3 750C255.1 750 298.8 742.3 334.4 729.9 335.7 708.1 339.1 686.9 344.4 666.3 303.1 680.2 255.3 687.5 208.3 687.5 129.5 687.5 47.7 667.3 0 629.1V656.3C0 708 97 750 208.3 750M773.2 684.7H748.2V744.2H773.2C796.6 744.2 807.7 732.4 807.7 712.3 807.7 692.3 795.2 684.7 773.2 684.7M666.7 500C528.6 500 416.7 612 416.7 750S528.7 1000 666.7 1000 916.7 888 916.7 750 804.7 500 666.7 500M560.2 862.3H490.3V637.6H556.7C625.1 637.6 672.1 669.5 672.1 748.9 672.1 828.5 625.1 862.3 560.2 862.3M775.8 791.2H748.2V862.3H688.8V637.6H775.8C824.2 637.6 865.8 655.6 865.8 712.2 865.7 767.3 822.9 791.2 775.8 791.2M553.2 685.4H549.7V814.6H553.2C585.7 814.6 611.3 801.5 611.3 749S585.8 685.4 553.2 685.4M208.3 895.8C129.5 895.8 47.7 875.7 0 837.4V864.6C0 916.4 97 958.3 208.3 958.3 277.3 958.3 340.7 942.2 379 917.5 370.2 902.6 362.6 886.8 356.2 870.3 312.5 887 259.8 895.8 208.3 895.8M208.3 458.3C97 458.3 0 500.3 0 552.1S97 645.8 208.3 645.8C268.5 645.8 324 633.3 362.7 613.8 375.7 585.1 392.5 558.5 412.6 534.7 393.8 491.2 306.8 458.3 208.3 458.3",
        "width": 917
      },
      "search": [
        "vektor-smartobjekt"
      ]
    },
    {
      "uid": "9bd60140934a1eb9236fd7a8ab1ff6ba",
      "css": "spin4",
      "code": 59444,
      "src": "fontelico"
    },
    {
      "uid": "421bdc30e3e7444c5a753d57bd612144",
      "css": "vektor-smartobjekt2",
      "code": 59430,
      "src": "custom_icons",
      "selected": true,
      "svg": {
        "path": "M1352.8 0L1308.9 88.6H1195.7L991.4 764.9H271.2L0 176.3H959.1L926 264.9H147.8L320.4 676.3H933.3L1135.2 0H1352.8ZM470.6 823.6C421.9 823.6 382.5 863.2 382.5 911.7 382.5 960.5 421.9 1000 470.6 1000S558.7 960.4 558.7 911.7C558.7 863.2 519.3 823.6 470.6 823.6M764.6 823.6C715.8 823.6 676.3 863.1 676.3 911.9S715.8 1000.1 764.6 1000.1C813.3 1000.1 852.6 960.5 852.6 911.9 852.6 863.2 813.2 823.6 764.6 823.6",
        "width": 1353
      },
      "search": [
        "vektor-smartobjekt2"
      ]
    },
    {
      "uid": "e646a39c5fdc6d3b3b1de0ac6d31957c",
      "css": "vektor-smartobjekt11",
      "code": 59431,
      "src": "custom_icons",
      "selected": true,
      "svg": {
        "path": "M302.3 116.1C439.9 116.1 513.7 264.6 545.4 330 577.3 264.2 650.4 116.6 788.9 116.6 876.4 116.6 970.6 172.2 970.6 294.3 970.6 440.7 769 628.2 545.4 847.1 321.9 628.1 120.3 440.6 120.3 294.3 120.3 180.5 203.8 116 302.3 116.1M285.5 0C140.9 0 0 99.4 0 281.5 0 493.3 253.2 709.9 545.4 999.9 837.7 709.9 1090.9 493.3 1090.9 281.5 1090.9 99.1 950.1 0.4 805.7 0.4 705.7 0.4 603.6 47.8 545.4 147.6 487.1 47.3 385.4 0 285.5 0",
        "width": 1091
      },
      "search": [
        "vektor-smartobjekt11"
      ]
    },
    {
      "uid": "46caae00aba72e9592afcd10f1878c67",
      "css": "vektor-smartobjekt1",
      "code": 59432,
      "src": "custom_icons",
      "selected": true,
      "svg": {
        "path": "M545.5 90.9C796.1 90.9 1000 254.2 1000 454.9 1000 678.4 766.1 816.7 549.5 816.7 461.5 816.7 395.8 798.7 349.8 787.4 304.4 815.2 277.3 834.5 155.6 870.1 180 807.7 188.5 745.2 183 676.2 144.9 630.8 91 567.1 91 454.8 90.9 254.2 294.8 90.9 545.5 90.9M545.5 0C257.4 0 0 192.1 0 454.9 0 548 33.5 639.5 93 710.5 95.5 793.7 46.5 913.1 2.5 1000 120.7 978.6 288.9 931.5 365.1 884.7 429.5 900.4 491.2 907.6 549.6 907.6 871.6 907.6 1091 687.7 1091 454.9 1090.9 190.7 831.8 0 545.5 0M592 635.2C592 661 571.2 681.8 545.5 681.8 519.8 681.8 498.9 661 498.9 635.2 498.9 609.6 519.8 588.7 545.5 588.7 571.2 588.7 592 609.5 592 635.2M643.9 262.9C621.2 239.9 587.5 227.3 548.9 227.3 467.7 227.3 415.2 285 415.2 374.4H490C490 319.1 521 299.5 547.4 299.5 571 299.5 596 315.1 598.1 345.1 600.5 376.6 583.6 392.6 562.3 413 509.7 463 508.7 487.2 509 542.1H583.7C583.2 517.4 584.8 497.4 618.5 461 643.8 433.8 675.1 400 675.8 348.4 676.1 314 665.1 284.4 643.9 262.9",
        "width": 1091
      },
      "search": [
        "vektor-smartobjekt1"
      ]
    },
    {
      "uid": "559647a6f430b3aeadbecd67194451dd",
      "css": "menu",
      "code": 61641,
      "src": "fontawesome"
    },
    {
      "uid": "2cfb3f2b46b34a1790aec0aa846297b6",
      "css": "menu-1",
      "code": 59434,
      "src": "entypo"
    },
    {
      "uid": "a66cdc7278e6b33b8bd44a141f5e1a8d",
      "css": "plus-circled",
      "code": 59433,
      "src": "entypo"
    },
    {
      "uid": "3eb93689881ad0804f87052a53edc2b6",
      "css": "minus-circled",
      "code": 59435,
      "src": "entypo"
    },
    {
      "uid": "010fcc8fb0f96faa88a5b0296f9fe1d7",
      "css": "vektor-smartobjekt-1",
      "code": 59436,
      "src": "custom_icons",
      "selected": true,
      "svg": {
        "path": "M437.5 957.5C437.5 980.9 456.6 1000 480.1 1000H612.6V912.5H480.1C456.6 912.5 437.5 934 437.5 957.5M918.9 737.4C919 882.4 815.6 934.8 656.5 934.8V979.5C829.7 979.5 962.8 909.8 962.7 737.5H918.9ZM962.8 649.9H875.3V515C875.3 259.7 671.6 87.9 481.3 87.5 291.2 87.9 87.5 259.7 87.5 514.9V649.9H0V514.9C0 207.5 248.9 0.4 481.3 0 713.9 0.4 962.8 207.5 962.8 515V649.9ZM221.7 474.8C171.8 474.8 131.3 515.3 131.3 565.3V734.5C131.3 784.5 171.8 824.9 221.7 824.9H306.3V474.8H221.7ZM739.7 474.8C789.7 474.8 830.1 515.3 830.1 565.2V734.4C830.1 784.4 789.6 824.9 739.7 824.9H656.5V474.7L739.7 474.8 739.7 474.8Z",
        "width": 963
      },
      "search": [
        "vektor-smartobjekt"
      ]
    },
    {
      "uid": "e9fa538fd5913046497ac148e27cd8ea",
      "css": "apple",
      "code": 61817,
      "src": "fontawesome"
    },
    {
      "uid": "289b5f92f23acf1059c93fbf401c1ad5",
      "css": "down-open-big",
      "code": 59437,
      "src": "entypo"
    },
    {
      "uid": "0805cca616b3c12714f35af4d0912c10",
      "css": "up-open-big",
      "code": 59438,
      "src": "entypo"
    },
    {
      "uid": "01b72bd6cef3fdcf76eef96809f9b608",
      "css": "easter-bunny-rabbit-svgrepo-com",
      "code": 59439,
      "src": "custom_icons",
      "selected": true,
      "svg": {
        "path": "M569 476.7C565.1 469.1 555.8 466.2 548.3 470.1 537 475.9 528.1 477.6 523.7 474.9 518.2 471.4 515.6 459.6 515.4 451.7 515.4 451.6 515.4 451.5 515.4 451.4 518.9 448.9 521.1 445.5 521.1 441.9 521.1 434.2 511.7 427.9 500 427.9 488.3 427.9 478.9 434.2 478.9 441.9 478.9 445.5 481.1 448.9 484.6 451.4 484.6 451.5 484.6 451.5 484.6 451.6 484.4 459.6 481.8 471.4 476.3 474.9 471.9 477.6 463 475.9 451.7 470.1 444.2 466.2 434.9 469.1 431 476.7 427.1 484.3 430 493.6 437.6 497.5 449.9 503.8 461.1 507 471.2 507 479.1 507 486.3 505 492.8 501 495.5 499.2 497.9 497.3 500 495.1 502.1 497.3 504.5 499.2 507.2 501 521.7 510 540.3 508.9 562.4 497.5 570 493.6 572.9 484.3 569 476.7ZM764.2 671.7C753.5 666.7 741.2 668.9 733 677.2L698.8 712C697.8 713 696.8 713.9 695.6 714.7 691.2 647.7 665.2 602.7 649.5 581.3 654.8 577.5 659.8 573.4 664.5 569.1 695.4 540.9 712.3 502.4 712.3 460.7 712.3 411.8 689.3 372 657.7 362.4 656 341.8 650.3 322.3 641.5 304.7 741.9 192.7 786.9 112 779 58.2 776 37.6 764.9 21 746.8 10.1 735.7 3.4 724 0 712.1 0 655.4 0 599.7 73 542 223 528.6 219.3 514.5 217.3 500 217.3 485.5 217.3 471.4 219.3 458 223 407.9 92.8 359.6 21 310.4 3.9 290.9-2.9 271.1-0.7 253.2 10.1 227.3 25.7 203.3 59.7 235.8 132.8 239.3 140.6 248.4 144.1 256.2 140.6 264 137.2 267.5 128.1 264 120.3 257 104.5 235.7 56.7 269.1 36.5 279.3 30.3 289.3 29.2 300.3 33 350.9 50.6 401 161 429.2 234 429 234.1 428.9 234.3 428.7 234.4 425.8 235.8 423.2 237.4 420.4 238.9 403.4 248.8 388 262.2 375.7 277.7 341.8 239.4 314.4 204.5 294.1 173.7 289.4 166.6 279.8 164.7 272.7 169.4 265.6 174.1 263.7 183.6 268.4 190.7 290.6 224.4 320.9 262.8 358.5 304.7 349.6 322.3 344 341.8 342.3 362.4 310.7 372 287.7 411.8 287.7 460.7 287.7 502.4 304.6 540.9 335.5 569.1 340.2 573.4 345.2 577.5 350.5 581.2 334.7 602.7 308.8 647.6 304.3 714.7 303.2 713.9 302.2 713 301.2 712L267 677.2C258.8 668.9 246.5 666.7 235.8 671.7 225 676.7 218.6 687.6 219.6 699.4 227.8 795.7 261.8 874.8 317.9 928 366.8 974.4 431.5 1000 500 1000 554.5 1000 606.5 984 650.5 953.7 657.5 948.8 659.2 939.2 654.4 932.2 649.6 925.2 640 923.5 633 928.3 594.2 955 548.2 969.2 500 969.2 439.4 969.2 382.3 946.6 339.1 905.6 290.1 859.2 259.8 789.9 251.1 705L279.2 733.6C289.7 744.3 303.6 750.1 318.6 750.1 332.4 750.1 345.9 744.9 356 735.5 368.5 724 380 711.2 391.9 699.1 396.5 694.4 402.8 691.7 409.3 691.7 409.6 691.7 409.9 691.8 410.2 691.8 416.4 692 422.4 694.6 426.7 699.1 438 710.6 449.3 722.1 460.6 733.6 467.8 740.9 476.7 746 486.4 748.4 492.6 750 499.1 750.5 505.6 749.9 518.4 748.6 530.3 742.9 539.4 733.6 539.4 733.6 573.3 699.1 573.3 699.1 577.9 694.4 584.2 691.7 590.7 691.7 597.2 691.7 603.6 694.4 608.1 699.1 619.7 710.9 631 723.2 643 734.6 653.4 744.4 667.1 750.1 681.4 750.1 696.4 750.1 710.4 744.3 720.8 733.6L748.9 705C741.2 781.4 716.7 843.5 676.2 889.7 670.5 896.1 671.2 905.9 677.6 911.5 684 917.1 693.7 916.5 699.3 910.1 745.7 857.1 773 786.3 780.4 699.4 781.4 687.6 775 676.7 764.2 671.7ZM648.7 78.6C671.5 47.3 693.4 30.8 712.1 30.8 718.4 30.8 724.6 32.7 730.9 36.5 741.2 42.7 746.8 51 748.5 62.7 756.5 116.9 679.4 215.3 624.3 277.7 610.1 259.6 591.8 244.7 571.3 234.3 571.1 234.3 571 234.1 570.8 234 597.2 165.5 623.3 113.3 648.7 78.6ZM318.5 460.7C318.5 423.6 336.5 391 357.1 391 365.6 391 372.5 384.1 372.5 375.6 372.5 344.9 383.5 316.7 401.6 294.6 401.7 294.6 401.7 294.6 401.7 294.6 425.6 265.4 462.4 248.1 500 248.1 537.6 248.1 574.4 265.6 598.3 294.6 598.3 294.6 598.3 294.6 598.4 294.6 616.5 316.7 627.5 344.9 627.5 375.6 627.5 384.1 634.4 391 642.9 391 663.5 391 681.5 423.6 681.5 460.7 681.5 479.8 676.6 516.3 643.7 546.4 605.4 581.3 550.1 590.2 500 590.2 450.2 590.2 394.4 581.2 356.3 546.4 323.4 516.3 318.5 479.8 318.5 460.7ZM664 712L630.1 677.5C619.6 666.8 605.7 660.9 590.7 660.9 558.8 660.9 537.8 691.2 517.4 712 498.2 731.6 478.6 707.6 466 693.9 450.8 677.5 433.1 660.9 409.3 660.9 376.7 660.9 356.5 691.1 336 712 335.8 712.2 335.6 712.4 335.4 712.5 340.5 652.4 364.9 613.2 377.2 597 376.8 597.5 423.7 613 428 614 451.6 619 475.9 621 500 621 522 621 544 619.4 565.6 615.3 570.5 614.3 623.4 597.7 622.8 597 627.6 603.2 634.1 612.9 640.7 625.7 650.2 644.6 661.4 674 664.6 712.5 664.4 712.4 664.2 712.2 664 712Z",
        "width": 1000
      },
      "search": [
        "easter-bunny-rabbit-svgrepo-com"
      ]
    },
    {
      "uid": "fad2ca4f253fcced0f0fcee39dd2f152",
      "css": "user001",
      "code": 59440,
      "src": "custom_icons",
      "selected": true,
      "svg": {
        "path": "M207.8 294.8A240.8 240.8 0 0 1 449.4 53.1 240.8 240.8 0 0 1 691 294.8 241.8 241.8 0 0 1 449.4 536.4 241.8 241.8 0 0 1 207.8 294.8ZM518.3 542.5C626.7 512.2 706.2 412.2 706.2 294.8 706.2 153.2 591 38 449.4 38 307.7 38 192.6 153.2 192.6 294.8 192.6 412.2 272.1 512.2 380.5 542.5A417.2 417.2 0 0 0 31.3 954.6H46.4C46.4 731.1 225.9 551.6 449.4 551.6 672.8 551.6 852.4 731.1 852.4 954.6H867.5A417.2 417.2 0 0 0 518.3 542.5ZM207.8 294.8A240.8 240.8 0 0 1 449.4 53.1 240.8 240.8 0 0 1 691 294.8 241.8 241.8 0 0 1 449.4 536.4 241.8 241.8 0 0 1 207.8 294.8ZM518.3 542.5C626.7 512.2 706.2 412.2 706.2 294.8 706.2 153.2 591 38 449.4 38 307.7 38 192.6 153.2 192.6 294.8 192.6 412.2 272.1 512.2 380.5 542.5A417.2 417.2 0 0 0 31.3 954.6H46.4C46.4 731.1 225.9 551.6 449.4 551.6 672.8 551.6 852.4 731.1 852.4 954.6H867.5A417.2 417.2 0 0 0 518.3 542.5Z",
        "width": 906
      },
      "search": [
        "user001"
      ]
    },
    {
      "uid": "4c0abcf29c771936b56514621503a54e",
      "css": "cart001",
      "code": 59441,
      "src": "custom_icons",
      "selected": true,
      "svg": {
        "path": "M838.2 878.1C838.2 913.8 810 942.9 774.2 942.9S709.3 913.8 709.3 878.1C709.3 842.3 738.4 814 774.2 814 810 814 838.2 842.3 838.2 878.1ZM435.7 878.1C435.7 913.8 406.5 942.9 370.8 942.9 335.8 942.9 306.7 913.8 306.7 878.1 306.7 842.3 335.8 814 370.8 814 406.5 814 435.7 842.3 435.7 878.1ZM987.2 302.4L854.9 680.9H346.7L254.3 302.5ZM187.8 28H23.1V44.6H174.5L357.5 798.2A81.3 81.3 0 0 0 370.8 959.6 81.6 81.6 0 0 0 452.3 878.1C452.3 852.3 439.8 828.2 420.7 814H725.2A78.8 78.8 0 0 0 692.7 878.1 81.6 81.6 0 0 0 774.2 959.6C819.2 959.6 854.9 923 854.9 878.1A80.2 80.2 0 0 0 774.2 797.4H374.9L350 697.6H867.4L1010.4 285.8H250.2ZM838.2 878.1C838.2 913.8 810 942.9 774.2 942.9S709.3 913.8 709.3 878.1C709.3 842.3 738.4 814 774.2 814 810 814 838.2 842.3 838.2 878.1ZM435.7 878.1C435.7 913.8 406.5 942.9 370.8 942.9 335.8 942.9 306.7 913.8 306.7 878.1 306.7 842.3 335.8 814 370.8 814 406.5 814 435.7 842.3 435.7 878.1ZM987.2 302.4L854.9 680.9H346.7L254.3 302.5ZM187.8 28H23.1V44.6H174.5L357.5 798.2A81.3 81.3 0 0 0 370.8 959.6 81.6 81.6 0 0 0 452.3 878.1C452.3 852.3 439.8 828.2 420.7 814H725.2A78.8 78.8 0 0 0 692.7 878.1 81.6 81.6 0 0 0 774.2 959.6C819.2 959.6 854.9 923 854.9 878.1A80.2 80.2 0 0 0 774.2 797.4H374.9L350 697.6H867.4L1010.4 285.8H250.2Z",
        "width": 1030
      },
      "search": [
        "cart001"
      ]
    },
    {
      "uid": "890a76410466201b974f19c95ac809bd",
      "css": "star001",
      "code": 59442,
      "src": "custom_icons",
      "selected": true,
      "svg": {
        "path": "M507.9 76.8L611.4 396.8H947.6L676 594.9 780.2 914.9 507.9 716.8 235.6 914.9 339.1 594.9 67.5 396.8H403.7ZM507.9 29.8L392.7 382.1H22.8L322.3 600.8 207.7 953.1 507.9 734.4 808.1 953.1 692.9 600.8 992.4 382.1H622.5ZM507.9 76.8L611.4 396.8H947.6L676 594.9 780.2 914.9 507.9 716.8 235.6 914.9 339.1 594.9 67.5 396.8H403.7ZM507.9 29.8L392.7 382.1H22.8L322.3 600.8 207.7 953.1 507.9 734.4 808.1 953.1 692.9 600.8 992.4 382.1H622.5Z",
        "width": 1000
      },
      "search": [
        "star001"
      ]
    },
    {
      "uid": "7f9d2a81a2ade994d5b57d5e5965912e",
      "css": "search001",
      "code": 59443,
      "src": "custom_icons",
      "selected": true,
      "svg": {
        "path": "M583.8 761.4A360.8 360.8 0 0 1 440.5 790.5 369.2 369.2 0 0 1 297.8 762.1 370 370 0 0 1 181.5 683.8 371.3 371.3 0 0 1 102.6 566.8 357.5 357.5 0 0 1 73.5 424.2 360.8 360.8 0 0 1 102.6 280.9 373.1 373.1 0 0 1 180.8 163.9 355.2 355.2 0 0 1 297.2 85.7 363.3 363.3 0 0 1 440.5 56.6 360.8 360.8 0 0 1 583.8 85.7 358.7 358.7 0 0 1 700.1 163.9 368.5 368.5 0 0 1 779 281.6C797.7 326.6 807.4 375.1 807.4 424.2S797.7 521.2 779 566.2A355.2 355.2 0 0 1 700.8 682.5C684.2 699.1 666.2 714.3 646.8 727.5A368.5 368.5 0 0 1 583.8 761.4ZM821.2 424.3C821.9 215.9 653.7 42.8 440.5 42.8 229.3 42.8 60.4 212.4 59.7 424.3A380 380 0 0 0 440.5 804.3 382.8 382.8 0 0 0 702.8 700.5L930.6 928.3 940.3 918.6 712.5 690.8A379.8 379.8 0 0 0 821.2 424.3ZM583.8 761.4A360.8 360.8 0 0 1 440.5 790.5 369.2 369.2 0 0 1 297.8 762.1 370 370 0 0 1 181.5 683.8 371.3 371.3 0 0 1 102.6 566.8 357.5 357.5 0 0 1 73.5 424.2 360.8 360.8 0 0 1 102.6 280.9 373.1 373.1 0 0 1 180.8 163.9 355.2 355.2 0 0 1 297.2 85.7 363.3 363.3 0 0 1 440.5 56.6 360.8 360.8 0 0 1 583.8 85.7 358.7 358.7 0 0 1 700.1 163.9 368.5 368.5 0 0 1 779 281.6C797.7 326.6 807.4 375.1 807.4 424.2S797.7 521.2 779 566.2A355.2 355.2 0 0 1 700.8 682.5C684.2 699.1 666.2 714.3 646.8 727.5A368.5 368.5 0 0 1 583.8 761.4ZM821.2 424.3C821.9 215.9 653.7 42.8 440.5 42.8 229.3 42.8 60.4 212.4 59.7 424.3A380 380 0 0 0 440.5 804.3 382.8 382.8 0 0 0 702.8 700.5L930.6 928.3 940.3 918.6 712.5 690.8A379.8 379.8 0 0 0 821.2 424.3Z",
        "width": 1000
      },
      "search": [
        "search001"
      ]
    },
    {
      "uid": "5e0a374728ffa8d0ae1f331a8f648231",
      "css": "github-1",
      "code": 61715,
      "src": "fontawesome"
    },
    {
      "uid": "23e32b53a2033c770715f87b1ea3e2cc",
      "css": "contact-emotion",
      "code": 59445,
      "src": "custom_icons",
      "selected": true,
      "svg": {
        "path": "M500 887.1C381.7 887.1 275.6 833.5 204.6 749.6 242.5 678.2 316.7 629 403.2 629 408.1 629 412.9 629.8 417.5 631.3 443.7 639.7 471.2 645.2 500 645.2 528.8 645.2 556.5 639.7 582.5 631.2A49.3 49.3 0 0 1 596.8 629C683.3 629 757.5 678.2 795.4 749.6 724.4 833.5 618.3 887.1 500 887.1ZM500 193.5C598 193.5 677.4 273 677.4 371S598 548.4 500 548.4 322.6 468.9 322.6 371C322.6 273 402 193.5 500 193.5ZM500 0C223.8 0 0 223.8 0 500S223.8 1000 500 1000 1000 776.2 1000 500 776.2 0 500 0Z",
        "width": 1000
      },
      "search": [
        "contact-emotion"
      ]
    },
    {
      "uid": "ad6b3fbb5324abe71a9c0b6609cbb9f1",
      "css": "right-big",
      "code": 59446,
      "src": "fontawesome"
    },
    {
      "uid": "555ef8c86832e686fef85f7af2eb7cde",
      "css": "left-big",
      "code": 59447,
      "src": "fontawesome"
    },
    {
      "uid": "qqsxko9kqxh5g53lz33yonkpc2rpkvkn",
      "css": "left",
      "code": 59448,
      "src": "typicons"
    },
    {
      "uid": "4oaz56fmzfvx7vry2o540n9l4z79fz8t",
      "css": "right",
      "code": 59449,
      "src": "typicons"
    },
    {
      "uid": "7686897ce7ec808ff19aec948b5aaf43",
      "css": "right-1",
      "code": 59450,
      "src": "iconic"
    },
    {
      "uid": "a76545bb6ea4e684505da08d26e58467",
      "css": "left-1",
      "code": 59451,
      "src": "iconic"
    },
    {
      "uid": "94103e1b3f1e8cf514178ec5912b4469",
      "css": "sort-down",
      "code": 61661,
      "src": "fontawesome"
    },
    {
      "uid": "65b3ce930627cabfb6ac81ac60ec5ae4",
      "css": "sort-up",
      "code": 61662,
      "src": "fontawesome"
    },
    {
      "uid": "befef12752549f35d2f7c11311151eb8",
      "css": "user001_-_e024-fontello",
      "code": 59452,
      "src": "custom_icons",
      "selected": true,
      "svg": {
        "path": "M226.7 321.7C226.2 176.5 343.4 58.5 488.5 58 489.1 58 489.7 58 490.3 58 635.4 57.5 753.5 174.7 753.9 319.9 753.9 320.5 753.9 321 753.9 321.6 753.8 467.2 635.9 585.1 490.3 585.2 344.8 585.1 226.8 467.2 226.7 321.7L226.7 321.7ZM565.5 591.9C683.7 558.8 770.5 449.7 770.5 321.7 770.5 167.1 644.8 41.5 490.3 41.5 335.8 41.5 210.1 167.1 210.1 321.7 210.1 449.7 296.9 558.8 415.1 591.9 195.1 628.2 33.9 818.5 34.1 1041.5H50.6C50.6 797.7 246.5 601.8 490.3 601.8 734.1 601.8 930 797.7 930 1041.5H946.5C946.7 818.5 785.4 628.2 565.5 591.9Z",
        "width": 912
      },
      "search": [
        "user001_-_e024-fontello"
      ]
    },
    {
      "uid": "798cc4204bd470ad2c602dcbf3bca809",
      "css": "star001_-_e01e",
      "code": 59453,
      "src": "custom_icons",
      "selected": true,
      "svg": {
        "path": "M550.1 83.1L662.2 429.7H1026.3L732.2 644.4 845 991 550.1 776.3 255.2 991 367.3 644.4 73.2 429.7H437.2L550.1 83.1ZM550.1 32.2L425.3 413.8H24.7L349 650.7 225 1032.2 550.1 795.4 875.2 1032.2 750.4 650.7 1074.8 413.8H674.1L550.1 32.2Z",
        "width": 1050
      },
      "search": [
        "star001_-_e01e"
      ]
    },
    {
      "uid": "ba1a84f954866804bce2022d4e361b0b",
      "css": "cart001_-_e0bd",
      "code": 59454,
      "src": "custom_icons",
      "selected": true,
      "svg": {
        "path": "M838.2 878.1C838.2 913.9 809.9 943 774.2 943S709.3 913.9 709.3 878.1C709.3 842.3 738.4 814.1 774.2 814.1 810 814 838.2 842.3 838.2 878.1ZM435.7 878.1C435.7 913.9 406.5 943 370.8 943 335.8 943 306.7 913.9 306.7 878.1 306.7 842.3 335.8 814.1 370.8 814.1 406.5 814 435.7 842.3 435.7 878.1ZM987.2 302.4L854.9 680.9H346.7L254.3 302.5 987.2 302.4ZM187.8 28H23.1V44.6H174.5L357.5 798.2C313.3 805.9 283.6 847.9 291.2 892.2 297.9 930.9 331.4 959.4 370.8 959.6 415.8 959.6 452.2 923.1 452.3 878.1 452.3 852.3 439.8 828.2 420.7 814.1H725.2C704.7 829 692.6 852.8 692.7 878.1 692.8 923.1 729.3 959.6 774.2 959.6 819.2 959.6 854.9 923 854.9 878.1 855.2 833.8 819.4 797.7 775.1 797.5 774.8 797.5 774.5 797.5 774.2 797.5H374.9L350 697.6H867.4L1010.4 285.9H250.2L187.8 28Z",
        "width": 1030
      },
      "search": [
        "cart001_-_e0bd"
      ]
    },
    {
      "uid": "54292d459967cf3ed23410c1b3c56bcd",
      "css": "search001-1",
      "code": 59455,
      "src": "custom_icons",
      "selected": true,
      "svg": {
        "path": "M659.3 859.9C608.1 881.8 553.1 893 497.4 892.8 442.1 892.8 387.4 882 336.4 860.7 287.4 839.9 242.8 809.9 205 772.3 167.1 734.4 136.9 689.6 115.9 640.2 94 589.3 82.8 534.5 83.1 479.2 82.8 423.5 94 368.4 115.9 317.3 136.7 268 166.7 223.2 204.2 185.1 241.7 147.3 286.4 117.2 335.6 96.8 386.8 75 441.8 63.8 497.4 63.9 553 63.7 608.1 74.9 659.3 96.8 708.5 117.3 753.1 147.3 790.6 185.1 828.7 223.2 858.9 268.4 879.8 318 900.9 368.9 911.8 423.6 911.8 479.1 911.8 534.6 900.9 588.6 879.8 639.3 859.3 688.6 829.3 733.2 791.5 770.7 772.7 789.5 752.4 806.7 730.5 821.5 708 836.6 684.2 849.4 659.3 859.9L659.3 859.9ZM927.5 479.2C928.3 243.8 738.3 48.3 497.5 48.3 259 48.3 68.2 239.9 67.5 479.2 67.4 716.1 259.4 908.3 496.4 908.4 496.8 908.4 497.1 908.4 497.5 908.4 607.5 908.4 713.6 866.5 793.8 791.1L1051 1048.3 1062 1037.4 804.7 780.2C883.5 699.8 927.6 591.7 927.5 479.2Z",
        "width": 995
      },
      "search": [
        "search001"
      ]
    },
    {
      "uid": "02824eada68d5bd5c8f042b1e73321a6",
      "css": "boeck-user",
      "code": 59456,
      "src": "custom_icons",
      "selected": true,
      "svg": {
        "path": "M903.1 1000H820.8V945.2C820.6 827.3 725.1 731.8 607.3 731.7H295.8C178 731.8 82.5 827.3 82.3 945.2V1000H0V945.2C0.2 781.9 132.6 649.6 295.8 649.4H607.3C770.6 649.6 902.9 781.9 903.1 945.2V1000ZM451.5 487.9C339.5 487.9 248.6 397.1 248.6 285 248.6 173 339.5 82.1 451.5 82.1 563.6 82.1 654.4 173 654.4 285 654.4 397.1 563.6 487.9 451.5 487.9ZM451.5 0C294.1 0 166.5 127.6 166.5 285S294.1 570 451.5 570C608.9 570 736.5 442.4 736.5 285S608.9 0 451.5 0Z",
        "width": 903
      },
      "search": [
        "boeck-user"
      ]
    },
    {
      "uid": "e6bf29bce93ac19cd2ad12683082fdb9",
      "css": "boeck-cart",
      "code": 59457,
      "src": "custom_icons",
      "selected": true,
      "svg": {
        "path": "M944.1 512.8L950 452.5C957.9 375.6 965.9 298.8 973.6 221.9 974.3 214.8 976.7 212.9 983.7 213 1021.5 213.3 1059.2 213.1 1097 213.1H1105.6C1102.6 227.8 1099.8 241.5 1097 255.1 1080.1 334.9 1063.2 414.6 1046.5 494.5 1045.3 500.3 1043 502.6 1036.9 503.2 1007.8 506 978.8 509.3 949.8 512.4 948.3 512.5 946.8 512.6 944.1 512.8H944.1ZM887.1 265.2L869.6 435C866.8 461.8 864.3 488.6 861.4 515.3 861.1 517.8 858.4 521.8 856.5 522.1 824.8 525.8 793 529.1 760.4 532.6 760.2 529.3 759.8 526.7 759.8 524 759.8 423.3 759.9 322.6 759.7 221.9 759.7 215 761.5 212.9 768.5 213 807.1 213.3 845.6 213.1 884.1 213.1 886.6 213.1 889 213.4 892.3 213.5L887.1 265.2 887.1 265.2ZM554.4 213.1C593.2 213.1 632 213.2 670.7 213 676.8 213 678.4 214.8 678.4 220.7 678.2 325.1 678.2 429.6 678.4 534.2 678.4 539.4 677.2 541.6 671.5 542.2 644.7 544.9 617.9 547.8 591.1 551 585.2 551.7 583.3 549.9 582.7 544.1 574.5 468.5 566.2 392.9 557.9 317.4 554.5 287.1 551.2 256.8 547.9 226.6 547.5 222.6 547.2 218.6 546.8 213.6 550 213.4 552.2 213.1 554.4 213.1ZM333.1 213.5C336.2 213.3 338.5 213.1 340.7 213.1 379.2 213.1 417.8 213.2 456.3 213 462.5 212.9 464.3 214.9 465 220.8 474.2 306.5 483.7 392 493.2 477.7L501.3 552 501.9 560.1 451.3 565.7C439.4 567 427.6 567.9 416 569.6 410 570.4 407.6 568.7 406.4 562.7 397.8 520.8 388.7 479 379.9 437.1 364.8 365.6 349.8 294.2 334.8 222.8 334.2 219.9 333.7 217 333.1 213.5ZM425.2 651.2C429.4 650.6 432.8 650 436.2 649.6L582.8 634 821 608.5C903.1 599.8 985.2 591.1 1067.3 581.9 1094.8 578.9 1116.3 558.6 1122.1 531.6 1135.8 466.9 1149.4 402.1 1163.1 337.3 1172.8 291.7 1182.3 246.1 1192.2 200.6 1197.3 177.6 1192.1 158.1 1173.6 142.9 1162.5 133.9 1149.5 131.1 1135.4 131.1 865 131.3 594.7 131.2 324.3 131.4 317.1 131.4 314.5 129.5 313.1 122.4 308.6 98.1 303.3 73.9 298.1 49.8 291.9 21.2 268.4 0.7 239.3 0.3 189.7-0.2 140 0 90.4 0.3 76.4 0.2 63.4 7.6 56.5 19.8 48.3 32.1 47.9 48 55.5 60.8 63.3 74.9 75.9 82 92.1 82.1 132.6 82.2 173.2 82.2 213.8 82.1 219 82.1 221.6 82.9 222.9 89 249.8 217.4 276.9 345.7 304.1 474.1L358.9 733.4C366.2 768.2 389.6 787 425.4 787H1029.3C1031.8 787 1034.4 787.1 1036.9 786.9 1052.1 786.5 1065.9 777.3 1072.1 763.3 1079.1 749.6 1077.3 733.2 1067.6 721.3 1058.6 709.2 1046.1 705.1 1031.3 705.1 837.5 705.2 643.7 705.2 450 705.2 447.2 705.2 444.2 705.7 441.7 704.9 439.4 704.2 436.2 702.3 435.8 700.3 432 684.4 428.9 668.3 425.2 651.2L425.2 651.2ZM420.1 917.8C420.2 872.6 456.8 836.1 502 836.1 547.4 836.2 584.1 873.2 583.8 918.7 583.4 963.8 546.6 1000.1 501.5 1000 456.3 999.7 420 963 420.1 917.8L420.1 917.8ZM855 917.5C855.5 872.3 892.2 836 937.3 836.1 982.6 836.3 1019.4 873.8 1018.9 919 1018.1 964.2 981.2 1000.2 936.1 1000 891 999.4 854.8 962.6 855 917.5Z",
        "width": 1144
      },
      "search": [
        "boeck-cart"
      ]
    },
    {
      "uid": "7132e1233bc16cd1b6efe7e29d3613a5",
      "css": "linkedin-1",
      "code": 62232,
      "src": "entypo"
    },
    {
      "uid": "30c1b3f747ca75d1f39bd97a518e93c4",
      "css": "two-arrow-right",
      "code": 59458,
      "src": "custom_icons",
      "selected": true,
      "svg": {
        "path": "M626.5 0L1124 500 626.4 1000H1002.4L1499.9 500 1002.4 0H626.5ZM0 0L497.6 500 0 1000H375.9L873.4 500 376 0H0Z",
        "width": 1500
      },
      "search": [
        "two-arrow-right"
      ]
    },
    {
      "uid": "9d3e9faf68fd4e12def853f0d4e1173b",
      "css": "whatsapp",
      "code": 62002,
      "src": "fontawesome"
    },
    {
      "uid": "1fb8776fe6f1d3bbf970996fdfcf0f94",
      "css": "link",
      "code": 61563,
      "src": "mfglabs"
    },
    {
      "uid": "ae3so8q0b0n2h8esv9flua2nmwswa8fd",
      "css": "mail-1",
      "code": 59459,
      "src": "modernpics"
    },
    {
      "uid": "c91098f07ff0df45b3f8666b72b75801",
      "css": "phone",
      "code": 59460,
      "src": "elusive"
    },
    {
      "uid": "d17030afaecc1e1c22349b99f3c4992a",
      "css": "star-empty",
      "code": 59461,
      "src": "fontawesome"
    },
    {
      "uid": "a58032f4aafd0eec54803075f5b320d4",
      "css": "email",
      "code": 59462,
      "src": "zocial"
    },
    {
      "uid": "5854855e963044f93b15738a5bb27a29",
      "css": "phone-1",
      "code": 59463,
      "src": "entypo"
    },
    {
      "uid": "63b86fedd4ee9ad2105f54f4888e7088",
      "css": "info",
      "code": 59464,
      "src": "entypo"
    },
    {
      "uid": "d7f770e3a340f0ef12bc24f9e4a2f2b9",
      "css": "circle",
      "code": 59410,
      "src": "custom_icons",
      "selected": false,
      "svg": {
        "path": "M223.5 503.8C223.5 353.2 345.7 231 496.2 231 646.8 231 769 353.2 769 503.8S646.8 776.5 496.2 776.5C345.7 776.5 223.5 654.4 223.5 503.8ZM0 500C0 223.9 223.9 0 500 0S1000 223.9 1000 500 776.1 1000 500 1000 0 776.1 0 500Z",
        "width": 1000
      },
      "search": [
        "circle"
      ]
    },
    {
      "uid": "e3372311c8d9fc69e4e97405c7110a0b",
      "css": "circle",
      "code": 59411,
      "src": "custom_icons",
      "selected": false,
      "svg": {
        "path": "M223.5 503.8C223.5 353.2 345.7 231 496.2 231 646.8 231 769 353.2 769 503.8S646.8 776.5 496.2 776.5C345.7 776.5 223.5 654.4 223.5 503.8ZM0 500C0 223.9 223.9 0 500 0S1000 223.9 1000 500 776.1 1000 500 1000 0 776.1 0 500Z",
        "width": 1000
      },
      "search": [
        "circle"
      ]
    }
  ]
}