{
    "into-order-filter": {
        "general": {
            "title": "Symbio Order-ID",
            "onlylabel": "verfügbar",
            "withoutlabel": "nicht verfügbar",
            "selectption": "Select"
        }
    }
}
