<svg xmlns="http://www.w3.org/2000/svg" width="562" height="164" viewBox="0 0 562 164">
  <g id="Gruppe_86" data-name="Gruppe 86" transform="translate(4228 -7609)">
    <g id="mhsp-logo" transform="translate(-4210 7614)">
      <path id="Pfad_601" data-name="Pfad 601" d="M259,101.46a50.73,50.73,0,1,0-50.73-50.73A50.73,50.73,0,0,0,259,101.46Z" fill="#fff"/>
      <path id="Pfad_602" data-name="Pfad 602" d="M319.42,19.92h5.5V47.08h24.14V19.92h5.5V81.86h-5.5V52.22H324.92V81.86h-5.5V19.92Z" fill="#fff"/>
      <path id="Pfad_603" data-name="Pfad 603" d="M389.88,19.92h5.86l20.59,61.94h-5.86l-5.41-17H380.39l-5.59,17h-5.51l20.59-61.94ZM382,59.68h21.39L392.9,25.78h-.18Z" fill="#fff"/>
      <path id="Pfad_604" data-name="Pfad 604" d="M431.06,19.92h5.5V59c0,9.32,1.77,18.37,12.87,18.37,11.62,0,12.87-10,12.87-18.37V20h5.5V59.06c0,12.24-4,23.42-18.37,23.42s-18.37-10.11-18.37-23.42Z" fill="#fff"/>
      <path id="Pfad_605" data-name="Pfad 605" d="M486.7,73.17a16.93,16.93,0,0,0,10.91,4.17c9.94,0,11.19-8.88,11.19-11.18,0-7.19-4.26-10.12-11.72-15.09-8.61-5.86-11.18-9.76-11.18-16.77,0-13.76,12.51-15,16.15-15a25.67,25.67,0,0,1,9.76,1.95l-.26,6.21a17.76,17.76,0,0,0-9.85-3c-3.55,0-9.94,1.86-9.94,9.05,0,6.12,3.19,8.52,8.52,12.42,11,8.08,14.37,10.92,14.37,19.44,0,10.38-7.1,17.12-16.59,17.12-3.82,0-8.52-.88-11.72-2.92l.36-6.39Z" fill="#fff"/>
      <path id="Pfad_606" data-name="Pfad 606" d="M49.08,30.21H48.9L33.37,81.86H25.29L10.47,30.21h-.18V81.86H0V19.92H16.95L29.73,66.16h.18L42.95,19.92H59.37V81.86H49.08V30.21Z" fill="#fff"/>
      <path id="Pfad_607" data-name="Pfad 607" d="M76.41,19.92h32.56v9.05H87.77V45.48h20.05v9.05H87.77V72.81h22.09v9.05H76.41V19.92Z" fill="#fff"/>
      <path id="Pfad_608" data-name="Pfad 608" d="M124.24,19.92h16.15c19.34,0,29.64,10.47,29.64,31,0,20.86-12.43,31-29.64,31H124.24ZM135.6,73.17h3.81c12.78,0,18.55-8.7,18.55-22.28s-5.77-22.27-18.55-22.27H135.6Z" fill="#fff"/>
      <path id="Pfad_609" data-name="Pfad 609" d="M184.76,19.92h11.36V81.86H184.76V19.92Z" fill="#fff"/>
      <path id="Pfad_610" data-name="Pfad 610" d="M254.18,138.91c0,3.19.08,5,.16,6.73h-2.15v-2.79h-.08c-1.52,1.92-2.79,3.07-5.34,3.07-6.62,0-6.86-8.37-6.86-11.19,0-3.87,1.64-9.69,6.74-9.69a5.3,5.3,0,0,1,5.14,2.91h.08V115.76h2.31v23.15ZM247,143.77c3.94,0,5-3.9,5-8.05,0-2.71,0-8.52-5-8.52-3.47,0-4.67,3.58-4.67,8.28,0,1.68,0,8.29,4.63,8.29Z" fill="#fff"/>
      <path id="Pfad_611" data-name="Pfad 611" d="M259.39,117.23h2.79v3.59h-2.79Zm.24,8.09h2.31v20.32h-2.31V125.32Z" fill="#fff"/>
      <path id="Pfad_612" data-name="Pfad 612" d="M269,136.24c0,7.53,4.82,7.53,5.73,7.53a7.4,7.4,0,0,0,4.39-1.67l.12,2.67a9.25,9.25,0,0,1-4.75,1.15c-8,0-8-8.4-8-10.44,0-7.65,3.78-10.44,7.21-10.44,5.89,0,6.49,6.26,6.49,11.2Zm8.76-2.15c0-5.38-2.27-6.89-4.14-6.89-3.15,0-4.62,4.26-4.62,6.89Z" fill="#fff"/>
      <path id="Pfad_613" data-name="Pfad 613" d="M294.57,117.83h3.79l7.73,24.15h.08l7.73-24.15h3.78v27.81h-2.31v-25.5h-.08l-8.21,25.5h-1.87l-8.25-25.5h-.08v25.5h-2.31V117.83Z" fill="#fff"/>
      <path id="Pfad_614" data-name="Pfad 614" d="M325,136.24c0,7.53,4.82,7.53,5.74,7.53a7.39,7.39,0,0,0,4.38-1.67l.12,2.67a9.21,9.21,0,0,1-4.74,1.15c-8,0-8-8.4-8-10.44,0-7.65,3.78-10.44,7.21-10.44,5.9,0,6.49,6.26,6.49,11.2Zm8.76-2.15c0-5.38-2.27-6.89-4.14-6.89-3.15,0-4.62,4.26-4.62,6.89Z" fill="#fff"/>
      <path id="Pfad_615" data-name="Pfad 615" d="M353.73,138.91c0,3.19.08,5,.16,6.73h-2.15v-2.79h-.08c-1.51,1.92-2.79,3.07-5.34,3.07-6.61,0-6.85-8.37-6.85-11.19,0-3.87,1.63-9.69,6.73-9.69a5.29,5.29,0,0,1,5.14,2.91h.08V115.76h2.31v23.15Zm-7.17,4.86c3.95,0,5-3.9,5-8.05,0-2.71,0-8.52-5-8.52-3.46,0-4.66,3.58-4.66,8.28,0,1.68,0,8.29,4.62,8.29Z" fill="#fff"/>
      <path id="Pfad_616" data-name="Pfad 616" d="M359,117.23h2.79v3.59H359Zm.24,8.09h2.31v20.32h-2.31V125.32Z" fill="#fff"/>
      <path id="Pfad_617" data-name="Pfad 617" d="M368.51,136.24c0,7.53,4.82,7.53,5.74,7.53a7.34,7.34,0,0,0,4.38-1.67l.12,2.67a9.18,9.18,0,0,1-4.74,1.15c-8,0-8-8.4-8-10.44,0-7.65,3.79-10.44,7.21-10.44,5.9,0,6.5,6.26,6.5,11.2Zm8.77-2.15c0-5.38-2.27-6.89-4.14-6.89-3.15,0-4.63,4.26-4.63,6.89Z" fill="#fff"/>
      <path id="Pfad_618" data-name="Pfad 618" d="M384.09,131.62c0-2.11-.12-4.19-.16-6.3h2.15c.08.92.12,1.52.16,3h.08A5.6,5.6,0,0,1,391.5,125c5.62,0,5.62,5.62,5.62,7v13.62h-2.31v-13.7c0-1.4,0-4.74-3.79-4.74-2.83,0-4.62,2.67-4.62,5.81v12.63h-2.31v-14Z" fill="#fff"/>
      <path id="Pfad_619" data-name="Pfad 619" d="M402.54,131.62c0-2.11-.12-4.19-.16-6.3h2.15c.08.92.12,1.52.16,3h.08a5.09,5.09,0,0,1,4.7-3.27,4.5,4.5,0,0,1,4.66,3.27,5.959,5.959,0,0,1,5.06-3.27c4.1,0,5.26,3.43,5.26,6.62v14h-2.31v-13.7c0-1.4,0-4.74-3.31-4.74-2.87,0-4.18,2.55-4.18,5.41v13h-2.31V131.5c0-2.63-1.16-4.3-3.07-4.3-2.63,0-4.42,2.67-4.42,5.81v12.63h-2.31v-14Z" fill="#fff"/>
      <path id="Pfad_620" data-name="Pfad 620" d="M442.22,141.1c0,1.52.12,3,.24,4.54h-2.08l-.16-2.91h-.08a6,6,0,0,1-5.69,3.19,5.73,5.73,0,0,1-5.66-5.89c0-6.5,6.89-6.62,9.8-6.62h1.48c0-2.55,0-6.21-4.23-6.21a8.44,8.44,0,0,0-5.1,2.11l-.36-2.47c1.92-1,3.35-1.8,5.58-1.8,6.26,0,6.26,5.26,6.26,6.74Zm-2.15-5.7c-4.79,0-8.81,0-8.81,4.63a3.7,3.7,0,0,0,3.75,3.74c1.07,0,5.06-.44,5.06-6V135.4Z" fill="#fff"/>
      <path id="Pfad_621" data-name="Pfad 621" d="M447.55,131.62c0-2.11-.12-4.19-.16-6.3h2.16c.08.92.12,1.52.16,3h.08A5.59,5.59,0,0,1,455,125c5.61,0,5.61,5.62,5.61,7v13.62H458.3v-13.7c0-1.4,0-4.74-3.78-4.74-2.83,0-4.62,2.67-4.62,5.81v12.63h-2.32v-14Z" fill="#fff"/>
      <path id="Pfad_622" data-name="Pfad 622" d="M478.35,141.1c0,1.52.12,3,.24,4.54h-2.07l-.16-2.91h-.08a6,6,0,0,1-5.7,3.19,5.73,5.73,0,0,1-5.66-5.89c0-6.5,6.9-6.62,9.81-6.62h1.47c0-2.55,0-6.21-4.22-6.21a8.4,8.4,0,0,0-5.1,2.11l-.36-2.47c1.91-1,3.34-1.8,5.58-1.8,6.25,0,6.25,5.26,6.25,6.74v9.32Zm-2.15-5.7c-4.78,0-8.81,0-8.81,4.63a3.71,3.71,0,0,0,3.75,3.74c1.07,0,5.06-.44,5.06-6V135.4Z" fill="#fff"/>
      <path id="Pfad_623" data-name="Pfad 623" d="M489.47,125a5.66,5.66,0,0,1,5.33,3.27h.08v-3H497c-.07,1.76-.15,3.55-.15,6.74v13.11c0,5.73-2.2,9.32-7.61,9.32a16.15,16.15,0,0,1-5.78-1.12l.16-2.59a12.32,12.32,0,0,0,5.58,1.56c5,0,5.34-4.62,5.34-6.7V142.8h-.09a5.44,5.44,0,0,1-5.13,3.07c-5.1,0-6.74-5.82-6.74-9.68,0-2.83.24-11.2,6.86-11.2Zm.27,18.73c3.83,0,5-3.39,5-8.53,0-4.14-1.07-8-5-8-4.62,0-4.62,6.61-4.62,8.28,0,4.7,1.2,8.29,4.66,8.29Z" fill="#fff"/>
      <path id="Pfad_624" data-name="Pfad 624" d="M503.53,136.24c0,7.53,4.82,7.53,5.74,7.53a7.39,7.39,0,0,0,4.38-1.67l.12,2.67a9.21,9.21,0,0,1-4.74,1.15c-8,0-8-8.4-8-10.44,0-7.65,3.78-10.44,7.21-10.44,5.9,0,6.49,6.26,6.49,11.2Zm8.76-2.15c0-5.38-2.27-6.89-4.14-6.89-3.15,0-4.62,4.26-4.62,6.89Z" fill="#fff"/>
      <path id="Pfad_625" data-name="Pfad 625" d="M519.1,131.62c0-2.11-.11-4.19-.15-6.3h2.15c0,1.2.12,2.39.16,3.23h.08c1.47-2.91,3.18-3.51,5.41-3.51v2.47c-3.66,0-5.33,1.6-5.33,5.34v12.79H519.1v-14Z" fill="#fff"/>
      <path id="Pfad_626" data-name="Pfad 626" d="M241.49,7.79a46.41,46.41,0,0,0-28.76,42.94,45.89,45.89,0,0,0,6.6,23.85Z" fill="#d50070"/>
      <path id="Pfad_627" data-name="Pfad 627" d="M262.3,55.58,250.19,18.54l-12.1,37.04Z" fill="#d50070"/>
      <path id="Pfad_628" data-name="Pfad 628" d="M272.94,87.33l-6.63-19.77H234.38l-5.92,18a46.5,46.5,0,0,0,59.21,1.8Z" fill="#d50070"/>
      <path id="Pfad_629" data-name="Pfad 629" d="M261.1,4.36l27.57,82.17a46.14,46.14,0,0,0,16.88-35.81c0-25-20.09-45.57-44.45-46.36Z" fill="#d50070"/>
      <path id="Pfad_630" data-name="Pfad 630" d="M517.56,23.5a4.476,4.476,0,1,1,0,.05Zm.83,0a3.77,3.77,0,1,1,7.53,0,3.77,3.77,0,1,1-7.53,0Zm2,2.69h.83v-2.3h.89l1.45,2.3h.89l-1.53-2.36a1.38,1.38,0,0,0,1.41-1.46c0-1-.6-1.53-1.87-1.53h-2.07v5.35Zm.83-4.67h1.1c.57,0,1.18.11,1.18.82s-.67.88-1.41.88h-.87v-1.7Z" fill="#fff"/>
    </g>
    <rect id="Rechteck_115" data-name="Rechteck 115" width="562" height="164" transform="translate(-4228 7609)" fill="rgba(0,0,0,0.22)"/>
    <text id="Ihr_Logo" data-name="Ihr Logo" transform="translate(-3947 7720)" fill="#fff" font-size="82" font-family="Arial-BoldMT, Arial" font-weight="700"><tspan x="-163.96" y="0">Ihr Logo</tspan></text>
  </g>
</svg>
