{
    "task-statistics-message-queue-stats": {
        "general": {
            "textHeadline": "Message Queue Statistiken",
            "mainMenuItemGeneral": "Message Queue Statistiken",
            "description": "Message Queue Statistiken anzeigen"
        },
        "grid": {
            "title": {
                "messageQueueStats": "Message Queue Statistiken",
                "enqueue": "Queue pro Channel"
            },
            "column": {
                "name": "Name",
                "count": "Anzahl",
                "size": "Größe"
            },
            "titleSidebarItemRefresh": "Aktualisieren"
        }
    }
}
